<?xml version="1.0" encoding="UTF-8" standalone="no"?>
<svg id="svg2" xmlns:rdf="http://www.w3.org/1999/02/22-rdf-syntax-ns#" xmlns="http://www.w3.org/2000/svg" height="92.644mm" viewBox="0 0 562.14743 328.26567" width="158.65mm" version="1.1" xmlns:cc="http://creativecommons.org/ns#" xmlns:dc="http://purl.org/dc/elements/1.1/">
<g id="layer1" transform="translate(-77.939 -173.88)">
<path id="path3442" d="m86 326.61h547" fill-rule="evenodd" stroke="#f00" stroke-width="1px" fill="#f00"/>
<text id="text3444" style="word-spacing:0px;letter-spacing:0px" xml:space="preserve" font-size="15px" line-height="125%" y="323.11221" x="605" font-family="sans-serif" fill="#ff0000"><tspan id="tspan3446" y="323.11221" x="605"><tspan id="tspan4289" font-style="italic">t</tspan>=2</tspan></text>
<path id="path3449" stroke="#f00" fill-rule="evenodd" fill="#f00" d="m579.14 248.36h53.86"/>
<text id="text3451" style="word-spacing:0px;letter-spacing:0px" xml:space="preserve" font-size="15px" line-height="125%" y="244.86221" x="605" font-family="sans-serif" fill="#ff0000"><tspan id="tspan3453" y="244.86221" x="605"><tspan id="tspan4287" font-style="italic">t</tspan>=3</tspan></text>
<path id="path3455" d="m175.5 406.61h457.5" fill-rule="evenodd" stroke="#f00" stroke-width=".91454px" fill="#f00"/>
<text id="text3457" style="word-spacing:0px;letter-spacing:0px" xml:space="preserve" font-size="15px" line-height="125%" y="403.11221" x="605" font-family="sans-serif" fill="#ff0000"><tspan id="tspan3459" y="403.11221" x="605"><tspan id="tspan4291" font-style="italic">t</tspan>=1</tspan></text>
<path id="path3461" d="m324.5 484.61h308.5" fill-rule="evenodd" stroke="#f00" stroke-width=".75099px" fill="#f00"/>
<text id="text3463" style="word-spacing:0px;letter-spacing:0px" xml:space="preserve" font-size="15px" line-height="125%" y="481.11221" x="605" font-family="sans-serif" fill="#ff0000"><tspan id="tspan3465" y="481.11221" x="605"><tspan id="tspan4293" font-style="italic">t</tspan>=0</tspan></text>
<g fill="none">
<path id="path4254" d="m146.37 323.34 31.82-55.154" stroke="#000" stroke-width="2"/>
<path id="path4256" d="m196.58 408.9-50.21-84.86" stroke="#12c6e7" stroke-width="2"/>
<g stroke="#000">
<path id="path4258" d="m244.66 327.58-47.376 80.61" stroke-width="2"/>
<path id="path4262" d="m244.66 269.6v55.861" stroke-width="2"/>
<path id="path4264" d="m309.71 270.3 66.468 55.861" stroke-width="2"/>
</g>
<path id="path4266" d="m376.89 269.6v57.983" stroke="#12c6e7" stroke-width="3"/>
<g stroke-width="2">
<path id="path4268" d="m441.94 269.6-65.054 57.276" stroke="#000"/>
<path id="path4270" d="m509.82 328.28v-58.69" stroke="#12c6e7"/>
<path id="path4272" d="m575.58 327.58v-57.983" stroke="#4ec248"/>
<path id="path4276" d="m575.58 328.99v75.66" stroke="#4ec248"/>
</g>
</g>
<path id="path4278" d="m510.53 324.75v78.489" fill-rule="evenodd" stroke="#4ec248" stroke-width="2" fill="#4ec248"/>
<g id="g4345" fill="none">
<path id="path4280" stroke-width="3" stroke="#4ec248" d="m376.89 326.16v79.903"/>
<path id="path4284" d="m349.31 485.26-154.86-76.36" stroke="#000" stroke-width="2"/>
<path id="path4286" stroke-width="3" stroke="#4ec248" d="m376.89 405.36-27.577 79.196"/>
<g stroke-width="2">
<path id="path4288" stroke="#000" d="m509.82 406.77-160.51 79.2"/>
<path id="path4290" stroke="#000" d="m575.58 404.65-225.56 81.32"/>
<path id="path4252" d="m146.37 324.04-27.58-55.15" stroke="#12c6e7"/>
</g>
</g>
<path id="path4152" fill="#4ec248" d="m88.21 246.63a25 25 0 0 0 12.5 21.65 25 25 0 0 0 25 0 25 25 0 0 0 12.5 -21.65h-50zm4.4121 4h41.195a21 21 0 0 1 -10.107 14.186 21 21 0 0 1 -21 0 21 21 0 0 1 -10.088 -14.186z"/>
<path id="path4161" fill="#9e48c2" d="m88.21 247.15a25 25 0 0 1 12.5 -21.65 25 25 0 0 1 25 0 25 25 0 0 1 12.5 21.65h-50zm4.4121-4h41.195a21 21 0 0 0 -10.107 -14.186 21 21 0 0 0 -21 0 21 21 0 0 0 -10.088 14.186z"/>
<path id="path4188" fill="#4ec248" d="m154.21 246.63a25 25 0 0 0 12.5 21.65 25 25 0 0 0 25 0 25 25 0 0 0 12.5 -21.65h-50zm4.4121 4h41.195a21 21 0 0 1 -10.107 14.186 21 21 0 0 1 -21 0 21 21 0 0 1 -10.088 -14.186z"/>
<path id="path4190" fill="#9e48c2" d="m154.21 247.15a25 25 0 0 1 12.5 -21.65 25 25 0 0 1 25 0 25 25 0 0 1 12.5 21.65h-50zm4.4121-4h41.195a21 21 0 0 0 -10.107 -14.186 21 21 0 0 0 -21 0 21 21 0 0 0 -10.088 14.186z"/>
<path id="path4194" fill="#4ec248" d="m220.21 246.63a25 25 0 0 0 12.5 21.65 25 25 0 0 0 25 0 25 25 0 0 0 12.5 -21.65h-50zm4.4121 4h41.195a21 21 0 0 1 -10.107 14.186 21 21 0 0 1 -21 0 21 21 0 0 1 -10.088 -14.186z"/>
<path id="path4196" fill="#9e48c2" d="m220.21 247.14a25 25 0 0 1 12.5 -21.65 25 25 0 0 1 25 0 25 25 0 0 1 12.5 21.65h-50zm4.4121-4h41.195a21 21 0 0 0 -10.107 -14.186 21 21 0 0 0 -21 0 21 21 0 0 0 -10.088 14.186z"/>
<path id="path4200" fill="#4ec248" d="m286.21 246.63a25 25 0 0 0 12.5 21.65 25 25 0 0 0 25 0 25 25 0 0 0 12.5 -21.65h-50zm4.4121 4h41.195a21 21 0 0 1 -10.107 14.186 21 21 0 0 1 -21 0 21 21 0 0 1 -10.088 -14.186z"/>
<path id="path4202" fill="#9e48c2" d="m286.21 247.14a25 25 0 0 1 12.5 -21.65 25 25 0 0 1 25 0 25 25 0 0 1 12.5 21.65h-50zm4.4121-4h41.195a21 21 0 0 0 -10.107 -14.186 21 21 0 0 0 -21 0 21 21 0 0 0 -10.088 14.186z"/>
<path id="path4206" fill="#4ec248" d="m352.21 246.63a25 25 0 0 0 12.5 21.65 25 25 0 0 0 25 0 25 25 0 0 0 12.5 -21.65h-50zm4.4121 4h41.195a21 21 0 0 1 -10.107 14.186 21 21 0 0 1 -21 0 21 21 0 0 1 -10.088 -14.186z"/>
<path id="path4208" fill="#9e48c2" d="m352.21 247.14a25 25 0 0 1 12.5 -21.65 25 25 0 0 1 25 0 25 25 0 0 1 12.5 21.65h-50zm4.4121-4h41.195a21 21 0 0 0 -10.107 -14.186 21 21 0 0 0 -21 0 21 21 0 0 0 -10.088 14.186z"/>
<path id="path4212" fill="#4ec248" d="m418.21 246.64a25 25 0 0 0 12.5 21.65 25 25 0 0 0 25 0 25 25 0 0 0 12.5 -21.65h-50zm4.4121 4h41.195a21 21 0 0 1 -10.107 14.186 21 21 0 0 1 -21 0 21 21 0 0 1 -10.088 -14.186z"/>
<path id="path4214" fill="#9e48c2" d="m418.21 247.14a25 25 0 0 1 12.5 -21.65 25 25 0 0 1 25 0 25 25 0 0 1 12.5 21.65h-50zm4.4121-4h41.195a21 21 0 0 0 -10.107 -14.186 21 21 0 0 0 -21 0 21 21 0 0 0 -10.088 14.186z"/>
<path id="path4218" fill="#4ec248" d="m484.21 246.64a25 25 0 0 0 12.5 21.65 25 25 0 0 0 25 0 25 25 0 0 0 12.5 -21.65h-50zm4.4121 4h41.195a21 21 0 0 1 -10.107 14.186 21 21 0 0 1 -21 0 21 21 0 0 1 -10.088 -14.186z"/>
<path id="path4220" fill="#9e48c2" d="m484.21 247.15a25 25 0 0 1 12.5 -21.65 25 25 0 0 1 25 0 25 25 0 0 1 12.5 21.65h-50zm4.4121-4h41.195a21 21 0 0 0 -10.107 -14.186 21 21 0 0 0 -21 0 21 21 0 0 0 -10.088 14.186z"/>
<path id="path4224" fill="#4ec248" d="m550.21 246.64a25 25 0 0 0 12.5 21.65 25 25 0 0 0 25 0 25 25 0 0 0 12.5 -21.65h-50zm4.4121 4h41.195a21 21 0 0 1 -10.107 14.186 21 21 0 0 1 -21 0 21 21 0 0 1 -10.088 -14.186z"/>
<path id="path4226" fill="#9e48c2" d="m550.21 247.15a25 25 0 0 1 12.5 -21.65 25 25 0 0 1 25 0 25 25 0 0 1 12.5 21.65h-50zm4.4121-4h41.195a21 21 0 0 0 -10.107 -14.186 21 21 0 0 0 -21 0 21 21 0 0 0 -10.088 14.186z"/>
<circle id="path4228" cx="146" cy="326.36" r="10"/>
<circle id="circle4230" cx="244.38" cy="326.36" r="10"/>
<circle id="circle4232" cx="196" cy="407.36" r="10"/>
<circle id="circle4234" cx="377" cy="326.36" r="10"/>
<circle id="circle4236" cx="376.71" cy="407.36" r="10"/>
<circle id="circle4238" cx="510" cy="326.36" r="10"/>
<circle id="circle4240" cx="510" cy="407.36" r="10"/>
<g font-family="sans-serif" fill="#000000">
<text id="text3364" style="word-spacing:0px;letter-spacing:0px" line-height="125%" y="240.62807" x="113.14124" xml:space="preserve"><tspan id="tspan3366" y="240.62807" x="113.14124" style="text-anchor:middle;text-align:center">5</tspan></text>
<text id="text3368" style="word-spacing:0px;letter-spacing:0px" line-height="125%" y="263.76407" x="113.14124" xml:space="preserve"><tspan id="tspan3370" y="263.76407" x="113.14124" style="text-anchor:middle;text-align:center">8</tspan></text>
<text id="text3372" style="word-spacing:0px;letter-spacing:0px" line-height="125%" y="240.62807" x="179.14124" xml:space="preserve"><tspan id="tspan3374" y="240.62807" x="179.14124" style="text-anchor:middle;text-align:center">2</tspan></text>
<text id="text3376" style="word-spacing:0px;letter-spacing:0px" line-height="125%" y="263.76407" x="179.14124" xml:space="preserve"><tspan id="tspan3378" y="263.76407" x="179.14124" style="text-anchor:middle;text-align:center">10</tspan></text>
<text id="text3396" style="word-spacing:0px;letter-spacing:0px" line-height="125%" y="240.63126" x="245.14124" xml:space="preserve"><tspan id="tspan3398" y="240.63126" x="245.14124" style="text-anchor:middle;text-align:center">0</tspan></text>
<text id="text3400" style="word-spacing:0px;letter-spacing:0px" line-height="125%" y="263.76724" x="245.14124" xml:space="preserve"><tspan id="tspan3402" y="263.76724" x="245.14124" style="text-anchor:middle;text-align:center">12</tspan></text>
<text id="text3404" style="word-spacing:0px;letter-spacing:0px" line-height="125%" y="240.63284" x="311.14124" xml:space="preserve"><tspan id="tspan3406" y="240.63284" x="311.14124" style="text-anchor:middle;text-align:center">2</tspan></text>
<text id="text3408" style="word-spacing:0px;letter-spacing:0px" line-height="125%" y="263.76883" x="311.14124" xml:space="preserve"><tspan id="tspan3410" y="263.76883" x="311.14124" style="text-anchor:middle;text-align:center">6</tspan></text>
<text id="text3412" style="word-spacing:0px;letter-spacing:0px" line-height="125%" y="240.63126" x="377.14124" xml:space="preserve"><tspan id="tspan3414" y="240.63126" x="377.14124" style="text-anchor:middle;text-align:center">-4</tspan></text>
<text id="text3416" style="word-spacing:0px;letter-spacing:0px" line-height="125%" y="263.76724" x="377.14124" xml:space="preserve"><tspan id="tspan3418" y="263.76724" x="377.14124" style="text-anchor:middle;text-align:center">13</tspan></text>
<text id="text3420" style="word-spacing:0px;letter-spacing:0px" line-height="125%" y="240.63603" x="443.14124" xml:space="preserve"><tspan id="tspan3422" y="240.63603" x="443.14124" style="text-anchor:middle;text-align:center">-5</tspan></text>
<text id="text3424" style="word-spacing:0px;letter-spacing:0px" line-height="125%" y="263.772" x="443.14124" xml:space="preserve"><tspan id="tspan3426" y="263.772" x="443.14124" style="text-anchor:middle;text-align:center">14</tspan></text>
<text id="text3428" style="word-spacing:0px;letter-spacing:0px" line-height="125%" y="240.63445" x="509.14124" xml:space="preserve"><tspan id="tspan3430" y="240.63445" x="509.14124" style="text-anchor:middle;text-align:center">4</tspan></text>
<text id="text3432" style="word-spacing:0px;letter-spacing:0px" line-height="125%" y="263.77042" x="509.14124" xml:space="preserve"><tspan id="tspan3434" y="263.77042" x="509.14124" style="text-anchor:middle;text-align:center">8</tspan></text>
<text id="text3436" style="word-spacing:0px;letter-spacing:0px" line-height="125%" y="240.63922" x="575.14124" xml:space="preserve"><tspan id="tspan3438" y="240.63922" x="575.14124" style="text-anchor:middle;text-align:center">0</tspan></text>
<text id="text3440" style="word-spacing:0px;letter-spacing:0px" line-height="125%" y="263.77518" x="575.14124" xml:space="preserve"><tspan id="tspan3442" y="263.77518" x="575.14124" style="text-anchor:middle;text-align:center">10</tspan></text>
</g>
<circle id="circle3444" cy="326.36" cx="576" r="10"/>
<circle id="circle3446" cy="407.36" cx="575.75" r="10"/>
<path id="path3448" d="m85.065 422.95s75.474 2.947 112.29 0c65.654-5.255 105.44-60.598 178.23-81.5 39.651-11.385 109.69 23.484 145.77-2 37.891-26.768-9.5-111 54.5-130" stroke="#9e48c2" stroke-dasharray="4, 8" stroke-width="2" fill="none"/>
<path id="path4250" d="m85.12 424.59s76.181 2.947 113 0c65.654-5.255 115.65-67.482 180-81.5 43.155-9.3999 107.93 23.484 144-2 37.891-26.768-9.5-111 54.5-130" stroke="#4ec248" stroke-dasharray="4, 8" stroke-width="2" fill="none"/>
<circle id="circle4282" cy="485.06" cx="349.84" r="10"/>
<g font-family="sans-serif" fill="#000000">
<text id="text4292" style="word-spacing:0px;letter-spacing:0px" line-height="125%" y="487.36221" x="220.5" xml:space="preserve"><tspan id="tspan4300" y="487.36221" x="220.5">Current state</tspan></text>
<text id="text4304" style="word-spacing:0px;letter-spacing:0px" line-height="125%" y="442.29114" x="84.656853" xml:space="preserve"><tspan id="tspan4318" y="442.29114" x="84.656853">No new</tspan><tspan id="tspan4623" y="461.04114" x="84.656853">individuals</tspan><tspan id="tspan4613" y="479.79114" x="84.656853">exist</tspan></text>
<text id="text4615" style="word-spacing:0px;letter-spacing:0px" line-height="125%" y="378.48944" x="85.559921" xml:space="preserve"><tspan id="tspan4617" y="378.48944" x="85.559921">New</tspan><tspan id="tspan4621" y="397.23944" x="85.559921">individuals</tspan><tspan id="tspan4619" y="415.98944" x="85.559921">exist</tspan></text>
<text id="text4625" style="word-spacing:0px;letter-spacing:0px" line-height="125%" y="192.3622" x="85" xml:space="preserve"><tspan id="tspan4627" y="192.3622" x="85" fill="#9e48c2">Sum of returns for individuals that do not exist at <tspan id="tspan4283" font-style="italic">t</tspan>=0.</tspan></text>
<text id="text4633" style="word-spacing:0px;letter-spacing:0px" line-height="125%" y="209.3622" x="85" xml:space="preserve"><tspan id="tspan4635" y="209.3622" x="85" fill="#4ec248">Sum of returns for individuals that exist at <tspan id="tspan4285" font-style="italic">t</tspan>=0.</tspan></text>
</g>
<text id="text4295" style="word-spacing:0px;letter-spacing:0px" xml:space="preserve" font-size="15px" line-height="125%" y="456.42548" x="466.2413" font-family="sans-serif" fill="#45c33d"><tspan id="tspan4297" y="456.42548" x="466.2413" fill="#4ec248">maximise green only</tspan></text>
<text id="text4299" style="word-spacing:0px;letter-spacing:0px" xml:space="preserve" font-size="15px" line-height="125%" y="355.77368" x="246.23061" font-family="sans-serif" fill="#45c33d"><tspan id="tspan4301" y="355.77368" x="246.23061" fill="#12c6e7">max. both</tspan></text>
</g>
</svg>
